…
One of the first things I was interested in was highest temperature. One thing that I noted about the data set `temperature` is that it is extremely large. When viewing all of the data in that set, there appears to be 528,278 entries, sorted into five columns.


::: {.cell}

```{.r .cell-code}
temperature %>%
  count(temperature) %>%
  arrange(-n)
```

::: {.cell-output .cell-output-stdout}
```
# A tibble: 571 × 2
   temperature     n
         <dbl> <int>
 1        NA    3465
 2        15.8  3005
 3        17.2  2996
 4        17    2956
 5        15.2  2938
 6        18.1  2885
 7        13.9  2879
 8        16.4  2857
 9        14.7  2855
10        16.5  2852
# … with 561 more rows
```
…
This command organizes each of the latitudes and longitudes and plots them on a map. This way, we are able to visualize where each of the locations are in the country.


::: {.cell}

```{.r .cell-code}
rainfall %>%
  group_by(year) %>%
  count(year)
```

::: {.cell-output .cell-output-stdout}
```
# A tibble: 163 × 2
# Groups:   year [163]
    year     n
   <dbl> <int>
 1  1858   365
 2  1859   365
 3  1860   366
 4  1861   365
 5  1862   365
 6  1863   365
 7  1864   366
 8  1865   365
 9  1866   365
10  1867   365
# … with 153 more rows
```
…
