…
We have specified eruptions (in the initial_split function), so that is the data which will be available. By changing this to one of the other five available data sets in the initial load, we can view different data.

By running exploratory_data, the table below is generated.


::: {.cell}

```{.r .cell-code}
exploratory_data
```

::: {.cell-output .cell-output-stdout}
```
# A tibble: 5,589 × 15
   volca…¹ volca…² erupt…³ erupt…⁴ area_…⁵   vei start…⁶ start…⁷ start…⁸ evide…⁹
     <dbl> <chr>     <dbl> <chr>   <chr>   <dbl>   <dbl>   <dbl>   <dbl> <chr>  
 1  344020 San Cr…   10882 Confir… <NA>        1    1976       8      29 Histor…
 2  241100 Ruapehu   14646 Confir… <NA>        1    1979       6      30 Histor…
 3  390030 Decept…   13182 Confir… N side…    NA    1800       0       0 Histor…
 4  211060 Etna      13732 Confir… East (…     2    1811      10      27 Histor…
 5  345040 Poas      11155 Confir… <NA>        1    1910       9      12 Histor…
 6  354030 Huayna…   11794 Confir… <NA>       NA   -7750       0       0 Radioc…
 7  357120 Villar…   21026 Confir… <NA>        2    1632      NA      NA Varve …
 8  283180 Azumay…   17929 Confir… Issaik…     1    1893      11       9 Histor…
 9  352040 Sumaco    11507 Uncert… <NA>        3    1650       0       0 <NA>   
10  373010 Grimsv…   12789 Confir… <NA>        3    1598      11       7 Histor…
# … with 5,579 more rows, 5 more variables: end_year <dbl>, end_month <dbl>,
#   end_day <dbl>, latitude <dbl>, longitude <dbl>, and abbreviated variable
#   names ¹​volcano_number, ²​volcano_name, ³​eruption_number, ⁴​eruption_category,
#   ⁵​area_of_activity, ⁶​start_year, ⁷​start_month, ⁸​start_day,
#   ⁹​evidence_method_dating
```
…
This function shows us how many of each eruption category are tracked in this data set. There appear to be 4,964 confirmed eruptions, 80 discredited eruptions, and 545 uncertain eruptions. This could be useful data because in determining answers to questions about actual eruptions, it may be necessary to only look at the 4,964 eruptions which were confirmed.


::: {.cell}

```{.r .cell-code}
exploratory_data %>%
  count(volcano_number)
```

::: {.cell-output .cell-output-stdout}
```
# A tibble: 768 × 2
   volcano_number     n
            <dbl> <int>
 1         210010     1
 2         210020     5
 3         211004     2
 4         211010    13
 5         211020    33
 6         211030     9
 7         211040     8
 8         211042     2
 9         211050    23
10         211060   136
# … with 758 more rows
```
:::

```{.r .cell-code}
exploratory_data %>%
  count(volcano_number) %>%
  arrange(-n)
```

::: {.cell-output .cell-output-stdout}
```
# A tibble: 768 × 2
   volcano_number     n
            <dbl> <int>
 1         211060   136
 2         233020   100
 3         283110    87
 4         357120    80
 5         282110    78
 6         372030    67
 7         332010    57
 8         300270    54
 9         263250    52
10         300260    52
# … with 758 more rows
```
…
This counts the eruptions per individual volcano. By using the arrange function, we are able to change the way that the data is presented and organize it in descending order, so that the volcano with the most eruptions is listed first. This shows us that volcano number 211060 has erupted the most times (124). Because this is so much more than any of the others, it can be considered an out liar and could be worth investigating more.


::: {.cell}

```{.r .cell-code}
exploratory_data %>%
  group_by(volcano_name) %>%
  count(eruption_category) %>%
  arrange(-n)
```

::: {.cell-output .cell-output-stdout}
```
# A tibble: 1,043 × 3
# Groups:   volcano_name [762]
   volcano_name           eruption_category      n
   <chr>                  <chr>              <int>
 1 Etna                   Confirmed Eruption   110
 2 Fournaise, Piton de la Confirmed Eruption    96
 3 Asamayama              Confirmed Eruption    77
 4 Asosan                 Confirmed Eruption    75
 5 Villarrica             Confirmed Eruption    72
 6 Katla                  Confirmed Eruption    66
 7 Kilauea                Confirmed Eruption    57
 8 Klyuchevskoy           Confirmed Eruption    51
 9 Merapi                 Confirmed Eruption    51
10 Sheveluch              Confirmed Eruption    51
# … with 1,033 more rows
```
…
