VolcanicEruptionsAnalysis
…
my_data_splits <- initial_split(eruptions, prop = 0.5)

exploratory_data <- training(my_data_splits)
test_data <- testing(my_data_splits)

We have specified eruptions (in the initial_split function), so that is the data which will be available. By changing this to one of the other five available data sets in the initial load, we can view different data.

By running exploratory_data, the table below is generated.

exploratory_data

# A tibble: 5,589 × 15
   volca…¹ volca…² erupt…³ erupt…⁴ area_…⁵   vei start…⁶ start…⁷ start…⁸ evide…⁹
     <dbl> <chr>     <dbl> <chr>   <chr>   <dbl>   <dbl>   <dbl>   <dbl> <chr>  
 1  300680 Ostry     19620 Confir… SW fla…    NA   -2050       0       0 Radioc…
 2  343100 San Mi…   10848 Confir… NE sid…     2    1884       1      25 Histor…
 3  345060 Irazu     11215 Discre… <NA>       NA    1889       2      28 <NA>   
 4  300190 Krashe…   19234 Confir… Northe…    NA   -1050       0       0 Radioc…
 5  300125 Akadem…   19123 Confir… North …    NA   -3850       0       0 Radioc…
 6  341060 Michoa…   10486 Confir… Parícu…     4    1943       2      20 Histor…
 7  321040 Adams     20505 Confir… NW fla…     2   -4550       0       0 Tephro…
 8  390030 Decept…   13188 Confir… S cald…     2    1842       2       0 Histor…
 9  357080 Antuco    19902 Confir… <NA>        1    1820       0       0 Histor…
10  344040 Telica    10906 Discre… <NA>       NA    1850       0       0 <NA>   
# … with 5,579 more rows, 5 more variables: end_year <dbl>, end_month <dbl>,
#   end_day <dbl>, latitude <dbl>, longitude <dbl>, and abbreviated variable
#   names ¹​volcano_number, ²​volcano_name, ³​eruption_number, ⁴​eruption_category,
#   ⁵​area_of_activity, ⁶​start_year, ⁷​start_month, ⁸​start_day,
#   ⁹​evidence_method_dating
…
# A tibble: 3 × 2
  eruption_category        n
  <chr>                <int>
1 Confirmed Eruption    4981
2 Discredited Eruption    79
3 Uncertain Eruption     529

This function shows us how many of each eruption category are tracked in this data set. There appear to be 4,964 confirmed eruptions, 80 discredited eruptions, and 545 uncertain eruptions. This could be useful data because in determining answers to questions about actual eruptions, it may be necessary to only look at the 4,964 eruptions which were confirmed.

exploratory_data %>%
  count(volcano_number)

# A tibble: 776 × 2
   volcano_number     n
            <dbl> <int>
 1         210010     1
 2         210020     4
 3         210040     1
 4         211003     1
 5         211004     1
 6         211010    10
 7         211020    28
 8         211030    14
 9         211031     1
10         211040    12
# … with 766 more rows

exploratory_data %>%
  count(volcano_number) %>%
  arrange(-n)

# A tibble: 776 × 2
   volcano_number     n
            <dbl> <int>
 1         211060   104
 2         233020    95
 3         282110    84
 4         357120    79
 5         283110    68
 6         300260    66
 7         372030    58
 8         300270    56
 9         284010    55
10         373010    53
# … with 766 more rows

This counts the eruptions per individual volcano. By using the arrange function, we are able to change the way that the data is presented and organize it in descending order, so that the volcano with the most eruptions is listed first. This shows us that volcano number 211060 has erupted the most times (124). Because this is so much more than any of the others, it can be considered an out liar and could be worth investigating more.

exploratory_data %>%
  group_by(volcano_name) %>%
  count(eruption_category) %>%
  arrange(-n)

# A tibble: 1,037 × 3
# Groups:   volcano_name [771]
   volcano_name           eruption_category      n
   <chr>                  <chr>              <int>
 1 Fournaise, Piton de la Confirmed Eruption    94
 2 Etna                   Confirmed Eruption    84
 3 Villarrica             Confirmed Eruption    77
 4 Asosan                 Confirmed Eruption    76
 5 Klyuchevskoy           Confirmed Eruption    64
 6 Asamayama              Confirmed Eruption    63
 7 Katla                  Confirmed Eruption    57
 8 Sheveluch              Confirmed Eruption    54
 9 Izu-Oshima             Confirmed Eruption    52
10 Kilauea                Confirmed Eruption    48
# … with 1,027 more rows
…
Inference/Methodology

In the inference section of this data analysis, a new set of data is used. Instead of using exploratory data, the below section shows the test data, which is completely separate from any data used previously.

test_data

# A tibble: 5,589 × 15
   volca…¹ volca…² erupt…³ erupt…⁴ area_…⁵   vei start…⁶ start…⁷ start…⁸ evide…⁹
     <dbl> <chr>     <dbl> <chr>   <chr>   <dbl>   <dbl>   <dbl>   <dbl> <chr>  
 1  266030 Soputan   22354 Confir… <NA>       NA    2020       3      23 Histor…
 2  233020 Fourna…   22343 Confir… <NA>       NA    2020       2      10 Histor…
 3  345020 Rincon…   22346 Confir… <NA>       NA    2020       1      31 Histor…
 4  311060 Semiso…   22341 Confir… <NA>       NA    2019      12       7 Histor…
 5  311240 Clevel…   22342 Uncert… <NA>       NA    2019      11       7 Histor…
 6  311360 Shisha…   22330 Confir… Summit…    NA    2019       7      23 Histor…
 7  351020 Ruiz, …   22329 Confir… <NA>       NA    2019       7      23 Histor…
 8  354020 Ubinas    22324 Confir… <NA>       NA    2019       6      24 Histor…
 9  311120 Great …   22322 Confir… <NA>       NA    2019       6       1 Histor…
10  290240 Sarych…   22320 Confir… <NA>        2    2019       5      16 Histor…
# … with 5,579 more rows, 5 more variables: end_year <dbl>, end_month <dbl>,
#   end_day <dbl>, latitude <dbl>, longitude <dbl>, and abbreviated variable
#   names ¹​volcano_number, ²​volcano_name, ³​eruption_number, ⁴​eruption_category,
#   ⁵​area_of_activity, ⁶​start_year, ⁷​start_month, ⁸​start_day,
#   ⁹​evidence_method_dating
…
